%YAML 1.1
%TAG !u! tag:unity3d.com,2011:
--- !u!1 &9198302571237735902
GameObject:
  m_ObjectHideFlags: 0
  m_CorrespondingSourceObject: {fileID: 0}
  m_PrefabInstance: {fileID: 0}
  m_PrefabAsset: {fileID: 0}
  serializedVersion: 6
  m_Component:
  - component: {fileID: 3506473405378452326}
  - component: {fileID: 1436033358674012775}
  - component: {fileID: 3520906289207224177}
  m_Layer: 0
  m_Name: Level 6
  m_TagString: Untagged
  m_Icon: {fileID: 0}
  m_NavMeshLayer: 0
  m_StaticEditorFlags: 0
  m_IsActive: 1
--- !u!4 &3506473405378452326
Transform:
  m_ObjectHideFlags: 0
  m_CorrespondingSourceObject: {fileID: 0}
  m_PrefabInstance: {fileID: 0}
  m_PrefabAsset: {fileID: 0}
  m_GameObject: {fileID: 9198302571237735902}
  m_LocalRotation: {x: 0, y: 0, z: 0, w: 1}
  m_LocalPosition: {x: 0.1, y: -30.1, z: -32.339844}
  m_LocalScale: {x: 1, y: 1, z: 1}
  m_Children:
  - {fileID: 6620382521410211963}
  - {fileID: 5296284148658289291}
  - {fileID: 8790569505333839690}
  - {fileID: 8840278235818654767}
  m_Father: {fileID: 0}
  m_RootOrder: 0
  m_LocalEulerAnglesHint: {x: 0, y: 0, z: 0}
--- !u!61 &1436033358674012775
BoxCollider2D:
  m_ObjectHideFlags: 0
  m_CorrespondingSourceObject: {fileID: 0}
  m_PrefabInstance: {fileID: 0}
  m_PrefabAsset: {fileID: 0}
  m_GameObject: {fileID: 9198302571237735902}
  m_Enabled: 1
  m_Density: 1
  m_Material: {fileID: 0}
  m_IsTrigger: 1
  m_UsedByEffector: 0
  m_UsedByComposite: 0
  m_Offset: {x: -0.35118532, y: 3.2524395}
  m_SpriteTilingProperty:
    border: {x: 0, y: 0, z: 0, w: 0}
    pivot: {x: 0, y: 0}
    oldSize: {x: 0, y: 0}
    newSize: {x: 0, y: 0}
    adaptiveTilingThreshold: 0
    drawMode: 0
    adaptiveTiling: 0
  m_AutoTiling: 0
  serializedVersion: 2
  m_Size: {x: 18.12355, y: 10.106827}
  m_EdgeRadius: 0
--- !u!114 &3520906289207224177
MonoBehaviour:
  m_ObjectHideFlags: 0
  m_CorrespondingSourceObject: {fileID: 0}
  m_PrefabInstance: {fileID: 0}
  m_PrefabAsset: {fileID: 0}
  m_GameObject: {fileID: 9198302571237735902}
  m_Enabled: 1
  m_EditorHideFlags: 0
  m_Script: {fileID: 11500000, guid: 89739153bf5691a43bb2346a200080a0, type: 3}
  m_Name: 
  m_EditorClassIdentifier: 
  platformDestructionPoint: {fileID: 9198302571237735902}
--- !u!1001 &4843699362377999545
PrefabInstance:
  m_ObjectHideFlags: 0
  serializedVersion: 2
  m_Modification:
    m_TransformParent: {fileID: 3506473405378452326}
    m_Modifications:
    - target: {fileID: 4149711774993995926, guid: eecf41585aec10a479207b9e5e4283c5,
        type: 3}
      propertyPath: m_LocalPosition.x
      value: 6.24
      objectReference: {fileID: 0}
    - target: {fileID: 4149711774993995926, guid: eecf41585aec10a479207b9e5e4283c5,
        type: 3}
      propertyPath: m_LocalPosition.y
      value: 3.96
      objectReference: {fileID: 0}
    - target: {fileID: 4149711774993995926, guid: eecf41585aec10a479207b9e5e4283c5,
        type: 3}
      propertyPath: m_LocalPosition.z
      value: 32.30664
      objectReference: {fileID: 0}
    - target: {fileID: 4149711774993995926, guid: eecf41585aec10a479207b9e5e4283c5,
        type: 3}
      propertyPath: m_LocalRotation.x
      value: -0
      objectReference: {fileID: 0}
    - target: {fileID: 4149711774993995926, guid: eecf41585aec10a479207b9e5e4283c5,
        type: 3}
      propertyPath: m_LocalRotation.y
      value: -0
      objectReference: {fileID: 0}
    - target: {fileID: 4149711774993995926, guid: eecf41585aec10a479207b9e5e4283c5,
        type: 3}
      propertyPath: m_LocalRotation.z
      value: -0
      objectReference: {fileID: 0}
    - target: {fileID: 4149711774993995926, guid: eecf41585aec10a479207b9e5e4283c5,
        type: 3}
      propertyPath: m_LocalRotation.w
      value: 1
      objectReference: {fileID: 0}
    - target: {fileID: 4149711774993995926, guid: eecf41585aec10a479207b9e5e4283c5,
        type: 3}
      propertyPath: m_RootOrder
      value: 3
      objectReference: {fileID: 0}
    - target: {fileID: 4149711774993995926, guid: eecf41585aec10a479207b9e5e4283c5,
        type: 3}
      propertyPath: m_LocalEulerAnglesHint.x
      value: 0
      objectReference: {fileID: 0}
    - target: {fileID: 4149711774993995926, guid: eecf41585aec10a479207b9e5e4283c5,
        type: 3}
      propertyPath: m_LocalEulerAnglesHint.y
      value: 0
      objectReference: {fileID: 0}
    - target: {fileID: 4149711774993995926, guid: eecf41585aec10a479207b9e5e4283c5,
        type: 3}
      propertyPath: m_LocalEulerAnglesHint.z
      value: 0
      objectReference: {fileID: 0}
    - target: {fileID: 3964065308634622754, guid: eecf41585aec10a479207b9e5e4283c5,
        type: 3}
      propertyPath: m_Name
      value: ItemSpawner
      objectReference: {fileID: 0}
    m_RemovedComponents: []
  m_SourcePrefab: {fileID: 100100000, guid: eecf41585aec10a479207b9e5e4283c5, type: 3}
--- !u!4 &8840278235818654767 stripped
Transform:
  m_CorrespondingSourceObject: {fileID: 4149711774993995926, guid: eecf41585aec10a479207b9e5e4283c5,
    type: 3}
  m_PrefabInstance: {fileID: 4843699362377999545}
  m_PrefabAsset: {fileID: 0}
--- !u!1001 &5567141746086511294
PrefabInstance:
  m_ObjectHideFlags: 0
  serializedVersion: 2
  m_Modification:
    m_TransformParent: {fileID: 3506473405378452326}
    m_Modifications:
    - target: {fileID: 342937347130865717, guid: 08df9875580c7e4418cfa6c1bbb191fd,
        type: 3}
      propertyPath: m_LocalPosition.x
      value: 0.31999993
      objectReference: {fileID: 0}
    - target: {fileID: 342937347130865717, guid: 08df9875580c7e4418cfa6c1bbb191fd,
        type: 3}
      propertyPath: m_LocalPosition.y
      value: 4
      objectReference: {fileID: 0}
    - target: {fileID: 342937347130865717, guid: 08df9875580c7e4418cfa6c1bbb191fd,
        type: 3}
      propertyPath: m_LocalPosition.z
      value: 0
      objectReference: {fileID: 0}
    - target: {fileID: 342937347130865717, guid: 08df9875580c7e4418cfa6c1bbb191fd,
        type: 3}
      propertyPath: m_LocalRotation.x
      value: -0
      objectReference: {fileID: 0}
    - target: {fileID: 342937347130865717, guid: 08df9875580c7e4418cfa6c1bbb191fd,
        type: 3}
      propertyPath: m_LocalRotation.y
      value: -0
      objectReference: {fileID: 0}
    - target: {fileID: 342937347130865717, guid: 08df9875580c7e4418cfa6c1bbb191fd,
        type: 3}
      propertyPath: m_LocalRotation.z
      value: -0
      objectReference: {fileID: 0}
    - target: {fileID: 342937347130865717, guid: 08df9875580c7e4418cfa6c1bbb191fd,
        type: 3}
      propertyPath: m_LocalRotation.w
      value: 1
      objectReference: {fileID: 0}
    - target: {fileID: 342937347130865717, guid: 08df9875580c7e4418cfa6c1bbb191fd,
        type: 3}
      propertyPath: m_RootOrder
      value: 1
      objectReference: {fileID: 0}
    - target: {fileID: 342937347130865717, guid: 08df9875580c7e4418cfa6c1bbb191fd,
        type: 3}
      propertyPath: m_LocalEulerAnglesHint.x
      value: 0
      objectReference: {fileID: 0}
    - target: {fileID: 342937347130865717, guid: 08df9875580c7e4418cfa6c1bbb191fd,
        type: 3}
      propertyPath: m_LocalEulerAnglesHint.y
      value: 0
      objectReference: {fileID: 0}
    - target: {fileID: 342937347130865717, guid: 08df9875580c7e4418cfa6c1bbb191fd,
        type: 3}
      propertyPath: m_LocalEulerAnglesHint.z
      value: 0
      objectReference: {fileID: 0}
    - target: {fileID: 342937347130865712, guid: 08df9875580c7e4418cfa6c1bbb191fd,
        type: 3}
      propertyPath: m_Name
      value: 'Platform 3x1 '
      objectReference: {fileID: 0}
    m_RemovedComponents: []
  m_SourcePrefab: {fileID: 100100000, guid: 08df9875580c7e4418cfa6c1bbb191fd, type: 3}
--- !u!4 &5296284148658289291 stripped
Transform:
  m_CorrespondingSourceObject: {fileID: 342937347130865717, guid: 08df9875580c7e4418cfa6c1bbb191fd,
    type: 3}
  m_PrefabInstance: {fileID: 5567141746086511294}
  m_PrefabAsset: {fileID: 0}
--- !u!1001 &9024153549042171775
PrefabInstance:
  m_ObjectHideFlags: 0
  serializedVersion: 2
  m_Modification:
    m_TransformParent: {fileID: 3506473405378452326}
    m_Modifications:
    - target: {fileID: 342937347130865717, guid: 08df9875580c7e4418cfa6c1bbb191fd,
        type: 3}
      propertyPath: m_LocalPosition.x
      value: 5.3199997
      objectReference: {fileID: 0}
    - target: {fileID: 342937347130865717, guid: 08df9875580c7e4418cfa6c1bbb191fd,
        type: 3}
      propertyPath: m_LocalPosition.y
      value: 8
      objectReference: {fileID: 0}
    - target: {fileID: 342937347130865717, guid: 08df9875580c7e4418cfa6c1bbb191fd,
        type: 3}
      propertyPath: m_LocalPosition.z
      value: 42.339844
      objectReference: {fileID: 0}
    - target: {fileID: 342937347130865717, guid: 08df9875580c7e4418cfa6c1bbb191fd,
        type: 3}
      propertyPath: m_LocalRotation.x
      value: -0
      objectReference: {fileID: 0}
    - target: {fileID: 342937347130865717, guid: 08df9875580c7e4418cfa6c1bbb191fd,
        type: 3}
      propertyPath: m_LocalRotation.y
      value: -0
      objectReference: {fileID: 0}
    - target: {fileID: 342937347130865717, guid: 08df9875580c7e4418cfa6c1bbb191fd,
        type: 3}
      propertyPath: m_LocalRotation.z
      value: -0
      objectReference: {fileID: 0}
    - target: {fileID: 342937347130865717, guid: 08df9875580c7e4418cfa6c1bbb191fd,
        type: 3}
      propertyPath: m_LocalRotation.w
      value: 1
      objectReference: {fileID: 0}
    - target: {fileID: 342937347130865717, guid: 08df9875580c7e4418cfa6c1bbb191fd,
        type: 3}
      propertyPath: m_RootOrder
      value: 2
      objectReference: {fileID: 0}
    - target: {fileID: 342937347130865717, guid: 08df9875580c7e4418cfa6c1bbb191fd,
        type: 3}
      propertyPath: m_LocalEulerAnglesHint.x
      value: 0
      objectReference: {fileID: 0}
    - target: {fileID: 342937347130865717, guid: 08df9875580c7e4418cfa6c1bbb191fd,
        type: 3}
      propertyPath: m_LocalEulerAnglesHint.y
      value: 0
      objectReference: {fileID: 0}
    - target: {fileID: 342937347130865717, guid: 08df9875580c7e4418cfa6c1bbb191fd,
        type: 3}
      propertyPath: m_LocalEulerAnglesHint.z
      value: 0
      objectReference: {fileID: 0}
    - target: {fileID: 342937347130865712, guid: 08df9875580c7e4418cfa6c1bbb191fd,
        type: 3}
      propertyPath: m_Name
      value: Platform 3x1 (1)
      objectReference: {fileID: 0}
    m_RemovedComponents: []
  m_SourcePrefab: {fileID: 100100000, guid: 08df9875580c7e4418cfa6c1bbb191fd, type: 3}
--- !u!4 &8790569505333839690 stripped
Transform:
  m_CorrespondingSourceObject: {fileID: 342937347130865717, guid: 08df9875580c7e4418cfa6c1bbb191fd,
    type: 3}
  m_PrefabInstance: {fileID: 9024153549042171775}
  m_PrefabAsset: {fileID: 0}
--- !u!1001 &9119696655059545974
PrefabInstance:
  m_ObjectHideFlags: 0
  serializedVersion: 2
  m_Modification:
    m_TransformParent: {fileID: 3506473405378452326}
    m_Modifications:
    - target: {fileID: 2697648590036680461, guid: 878999bb6e582fc45bf668956f71e4f1,
        type: 3}
      propertyPath: m_LocalPosition.x
      value: -2.68
      objectReference: {fileID: 0}
    - target: {fileID: 2697648590036680461, guid: 878999bb6e582fc45bf668956f71e4f1,
        type: 3}
      propertyPath: m_LocalPosition.y
      value: 0
      objectReference: {fileID: 0}
    - target: {fileID: 2697648590036680461, guid: 878999bb6e582fc45bf668956f71e4f1,
        type: 3}
      propertyPath: m_LocalPosition.z
      value: 0
      objectReference: {fileID: 0}
    - target: {fileID: 2697648590036680461, guid: 878999bb6e582fc45bf668956f71e4f1,
        type: 3}
      propertyPath: m_LocalRotation.x
      value: -0
      objectReference: {fileID: 0}
    - target: {fileID: 2697648590036680461, guid: 878999bb6e582fc45bf668956f71e4f1,
        type: 3}
      propertyPath: m_LocalRotation.y
      value: -0
      objectReference: {fileID: 0}
    - target: {fileID: 2697648590036680461, guid: 878999bb6e582fc45bf668956f71e4f1,
        type: 3}
      propertyPath: m_LocalRotation.z
      value: -0
      objectReference: {fileID: 0}
    - target: {fileID: 2697648590036680461, guid: 878999bb6e582fc45bf668956f71e4f1,
        type: 3}
      propertyPath: m_LocalRotation.w
      value: 1
      objectReference: {fileID: 0}
    - target: {fileID: 2697648590036680461, guid: 878999bb6e582fc45bf668956f71e4f1,
        type: 3}
      propertyPath: m_RootOrder
      value: 0
      objectReference: {fileID: 0}
    - target: {fileID: 2697648590036680461, guid: 878999bb6e582fc45bf668956f71e4f1,
        type: 3}
      propertyPath: m_LocalEulerAnglesHint.x
      value: 0
      objectReference: {fileID: 0}
    - target: {fileID: 2697648590036680461, guid: 878999bb6e582fc45bf668956f71e4f1,
        type: 3}
      propertyPath: m_LocalEulerAnglesHint.y
      value: 0
      objectReference: {fileID: 0}
    - target: {fileID: 2697648590036680461, guid: 878999bb6e582fc45bf668956f71e4f1,
        type: 3}
      propertyPath: m_LocalEulerAnglesHint.z
      value: 0
      objectReference: {fileID: 0}
    - target: {fileID: 2697648590036680456, guid: 878999bb6e582fc45bf668956f71e4f1,
        type: 3}
      propertyPath: m_Name
      value: Platform 9x1
      objectReference: {fileID: 0}
    m_RemovedComponents: []
  m_SourcePrefab: {fileID: 100100000, guid: 878999bb6e582fc45bf668956f71e4f1, type: 3}
--- !u!4 &6620382521410211963 stripped
Transform:
  m_CorrespondingSourceObject: {fileID: 2697648590036680461, guid: 878999bb6e582fc45bf668956f71e4f1,
    type: 3}
  m_PrefabInstance: {fileID: 9119696655059545974}
  m_PrefabAsset: {fileID: 0}
