%YAML 1.1
%TAG !u! tag:unity3d.com,2011:
--- !u!1 &7085537575257704367
GameObject:
  m_ObjectHideFlags: 0
  m_CorrespondingSourceObject: {fileID: 0}
  m_PrefabInstance: {fileID: 0}
  m_PrefabAsset: {fileID: 0}
  serializedVersion: 6
  m_Component:
  - component: {fileID: 7085537575257704366}
  - component: {fileID: 4983419704460469796}
  - component: {fileID: 3418273071370752302}
  m_Layer: 0
  m_Name: paul2
  m_TagString: Untagged
  m_Icon: {fileID: 0}
  m_NavMeshLayer: 0
  m_StaticEditorFlags: 0
  m_IsActive: 1
--- !u!4 &7085537575257704366
Transform:
  m_ObjectHideFlags: 0
  m_CorrespondingSourceObject: {fileID: 0}
  m_PrefabInstance: {fileID: 0}
  m_PrefabAsset: {fileID: 0}
  m_GameObject: {fileID: 7085537575257704367}
  m_LocalRotation: {x: 0, y: 0, z: 0, w: 1}
  m_LocalPosition: {x: 0, y: 0, z: 10}
  m_LocalScale: {x: 1, y: 1, z: 1}
  m_Children:
  - {fileID: 5132726968655224513}
  - {fileID: 4552114931755546819}
  - {fileID: 7120028310989264123}
  m_Father: {fileID: 0}
  m_RootOrder: 0
  m_LocalEulerAnglesHint: {x: 0, y: 0, z: 0}
--- !u!61 &4983419704460469796
BoxCollider2D:
  m_ObjectHideFlags: 0
  m_CorrespondingSourceObject: {fileID: 0}
  m_PrefabInstance: {fileID: 0}
  m_PrefabAsset: {fileID: 0}
  m_GameObject: {fileID: 7085537575257704367}
  m_Enabled: 1
  m_Density: 1
  m_Material: {fileID: 0}
  m_IsTrigger: 1
  m_UsedByEffector: 0
  m_UsedByComposite: 0
  m_Offset: {x: -0.5158701, y: 2.3969278}
  m_SpriteTilingProperty:
    border: {x: 0, y: 0, z: 0, w: 0}
    pivot: {x: 0, y: 0}
    oldSize: {x: 0, y: 0}
    newSize: {x: 0, y: 0}
    adaptiveTilingThreshold: 0
    drawMode: 0
    adaptiveTiling: 0
  m_AutoTiling: 0
  serializedVersion: 2
  m_Size: {x: 17.940233, y: 8.273844}
  m_EdgeRadius: 0
--- !u!114 &3418273071370752302
MonoBehaviour:
  m_ObjectHideFlags: 0
  m_CorrespondingSourceObject: {fileID: 0}
  m_PrefabInstance: {fileID: 0}
  m_PrefabAsset: {fileID: 0}
  m_GameObject: {fileID: 7085537575257704367}
  m_Enabled: 1
  m_EditorHideFlags: 0
  m_Script: {fileID: 11500000, guid: 89739153bf5691a43bb2346a200080a0, type: 3}
  m_Name: 
  m_EditorClassIdentifier: 
  platformDestructionPoint: {fileID: 7085537575257704367}
--- !u!1001 &4318397729068368118
PrefabInstance:
  m_ObjectHideFlags: 0
  serializedVersion: 2
  m_Modification:
    m_TransformParent: {fileID: 7085537575257704366}
    m_Modifications:
    - target: {fileID: 342937347130865712, guid: 08df9875580c7e4418cfa6c1bbb191fd,
        type: 3}
      propertyPath: m_Name
      value: 'Platform 3x1 '
      objectReference: {fileID: 0}
    - target: {fileID: 342937347130865717, guid: 08df9875580c7e4418cfa6c1bbb191fd,
        type: 3}
      propertyPath: m_LocalPosition.x
      value: -3.77
      objectReference: {fileID: 0}
    - target: {fileID: 342937347130865717, guid: 08df9875580c7e4418cfa6c1bbb191fd,
        type: 3}
      propertyPath: m_LocalPosition.y
      value: 4.18
      objectReference: {fileID: 0}
    - target: {fileID: 342937347130865717, guid: 08df9875580c7e4418cfa6c1bbb191fd,
        type: 3}
      propertyPath: m_LocalPosition.z
      value: 10
      objectReference: {fileID: 0}
    - target: {fileID: 342937347130865717, guid: 08df9875580c7e4418cfa6c1bbb191fd,
        type: 3}
      propertyPath: m_LocalRotation.x
      value: -0
      objectReference: {fileID: 0}
    - target: {fileID: 342937347130865717, guid: 08df9875580c7e4418cfa6c1bbb191fd,
        type: 3}
      propertyPath: m_LocalRotation.y
      value: -0
      objectReference: {fileID: 0}
    - target: {fileID: 342937347130865717, guid: 08df9875580c7e4418cfa6c1bbb191fd,
        type: 3}
      propertyPath: m_LocalRotation.z
      value: -0
      objectReference: {fileID: 0}
    - target: {fileID: 342937347130865717, guid: 08df9875580c7e4418cfa6c1bbb191fd,
        type: 3}
      propertyPath: m_LocalRotation.w
      value: 1
      objectReference: {fileID: 0}
    - target: {fileID: 342937347130865717, guid: 08df9875580c7e4418cfa6c1bbb191fd,
        type: 3}
      propertyPath: m_RootOrder
      value: 1
      objectReference: {fileID: 0}
    - target: {fileID: 342937347130865717, guid: 08df9875580c7e4418cfa6c1bbb191fd,
        type: 3}
      propertyPath: m_LocalEulerAnglesHint.x
      value: 0
      objectReference: {fileID: 0}
    - target: {fileID: 342937347130865717, guid: 08df9875580c7e4418cfa6c1bbb191fd,
        type: 3}
      propertyPath: m_LocalEulerAnglesHint.y
      value: 0
      objectReference: {fileID: 0}
    - target: {fileID: 342937347130865717, guid: 08df9875580c7e4418cfa6c1bbb191fd,
        type: 3}
      propertyPath: m_LocalEulerAnglesHint.z
      value: 0
      objectReference: {fileID: 0}
    m_RemovedComponents: []
  m_SourcePrefab: {fileID: 100100000, guid: 08df9875580c7e4418cfa6c1bbb191fd, type: 3}
--- !u!4 &4552114931755546819 stripped
Transform:
  m_CorrespondingSourceObject: {fileID: 342937347130865717, guid: 08df9875580c7e4418cfa6c1bbb191fd,
    type: 3}
  m_PrefabInstance: {fileID: 4318397729068368118}
  m_PrefabAsset: {fileID: 0}
--- !u!1001 &7085537575632052684
PrefabInstance:
  m_ObjectHideFlags: 0
  serializedVersion: 2
  m_Modification:
    m_TransformParent: {fileID: 7085537575257704366}
    m_Modifications:
    - target: {fileID: 2697648590036680461, guid: 878999bb6e582fc45bf668956f71e4f1,
        type: 3}
      propertyPath: m_LocalPosition.x
      value: -2.78
      objectReference: {fileID: 0}
    - target: {fileID: 2697648590036680461, guid: 878999bb6e582fc45bf668956f71e4f1,
        type: 3}
      propertyPath: m_LocalPosition.y
      value: 0
      objectReference: {fileID: 0}
    - target: {fileID: 2697648590036680461, guid: 878999bb6e582fc45bf668956f71e4f1,
        type: 3}
      propertyPath: m_LocalPosition.z
      value: 10
      objectReference: {fileID: 0}
    - target: {fileID: 2697648590036680461, guid: 878999bb6e582fc45bf668956f71e4f1,
        type: 3}
      propertyPath: m_LocalRotation.x
      value: -0
      objectReference: {fileID: 0}
    - target: {fileID: 2697648590036680461, guid: 878999bb6e582fc45bf668956f71e4f1,
        type: 3}
      propertyPath: m_LocalRotation.y
      value: -0
      objectReference: {fileID: 0}
    - target: {fileID: 2697648590036680461, guid: 878999bb6e582fc45bf668956f71e4f1,
        type: 3}
      propertyPath: m_LocalRotation.z
      value: -0
      objectReference: {fileID: 0}
    - target: {fileID: 2697648590036680461, guid: 878999bb6e582fc45bf668956f71e4f1,
        type: 3}
      propertyPath: m_LocalRotation.w
      value: 1
      objectReference: {fileID: 0}
    - target: {fileID: 2697648590036680461, guid: 878999bb6e582fc45bf668956f71e4f1,
        type: 3}
      propertyPath: m_RootOrder
      value: 0
      objectReference: {fileID: 0}
    - target: {fileID: 2697648590036680461, guid: 878999bb6e582fc45bf668956f71e4f1,
        type: 3}
      propertyPath: m_LocalEulerAnglesHint.x
      value: 0
      objectReference: {fileID: 0}
    - target: {fileID: 2697648590036680461, guid: 878999bb6e582fc45bf668956f71e4f1,
        type: 3}
      propertyPath: m_LocalEulerAnglesHint.y
      value: 0
      objectReference: {fileID: 0}
    - target: {fileID: 2697648590036680461, guid: 878999bb6e582fc45bf668956f71e4f1,
        type: 3}
      propertyPath: m_LocalEulerAnglesHint.z
      value: 0
      objectReference: {fileID: 0}
    - target: {fileID: 2697648590036680456, guid: 878999bb6e582fc45bf668956f71e4f1,
        type: 3}
      propertyPath: m_Name
      value: Platform 9x1
      objectReference: {fileID: 0}
    m_RemovedComponents: []
  m_SourcePrefab: {fileID: 100100000, guid: 878999bb6e582fc45bf668956f71e4f1, type: 3}
--- !u!4 &5132726968655224513 stripped
Transform:
  m_CorrespondingSourceObject: {fileID: 2697648590036680461, guid: 878999bb6e582fc45bf668956f71e4f1,
    type: 3}
  m_PrefabInstance: {fileID: 7085537575632052684}
  m_PrefabAsset: {fileID: 0}
--- !u!1001 &7353595018047548622
PrefabInstance:
  m_ObjectHideFlags: 0
  serializedVersion: 2
  m_Modification:
    m_TransformParent: {fileID: 7085537575257704366}
    m_Modifications:
    - target: {fileID: 342937347130865712, guid: 08df9875580c7e4418cfa6c1bbb191fd,
        type: 3}
      propertyPath: m_Name
      value: Platform 3x1 (1)
      objectReference: {fileID: 0}
    - target: {fileID: 342937347130865717, guid: 08df9875580c7e4418cfa6c1bbb191fd,
        type: 3}
      propertyPath: m_LocalPosition.x
      value: 3.089999
      objectReference: {fileID: 0}
    - target: {fileID: 342937347130865717, guid: 08df9875580c7e4418cfa6c1bbb191fd,
        type: 3}
      propertyPath: m_LocalPosition.y
      value: 6.21
      objectReference: {fileID: 0}
    - target: {fileID: 342937347130865717, guid: 08df9875580c7e4418cfa6c1bbb191fd,
        type: 3}
      propertyPath: m_LocalPosition.z
      value: 10
      objectReference: {fileID: 0}
    - target: {fileID: 342937347130865717, guid: 08df9875580c7e4418cfa6c1bbb191fd,
        type: 3}
      propertyPath: m_LocalRotation.x
      value: -0
      objectReference: {fileID: 0}
    - target: {fileID: 342937347130865717, guid: 08df9875580c7e4418cfa6c1bbb191fd,
        type: 3}
      propertyPath: m_LocalRotation.y
      value: -0
      objectReference: {fileID: 0}
    - target: {fileID: 342937347130865717, guid: 08df9875580c7e4418cfa6c1bbb191fd,
        type: 3}
      propertyPath: m_LocalRotation.z
      value: -0
      objectReference: {fileID: 0}
    - target: {fileID: 342937347130865717, guid: 08df9875580c7e4418cfa6c1bbb191fd,
        type: 3}
      propertyPath: m_LocalRotation.w
      value: 1
      objectReference: {fileID: 0}
    - target: {fileID: 342937347130865717, guid: 08df9875580c7e4418cfa6c1bbb191fd,
        type: 3}
      propertyPath: m_RootOrder
      value: 2
      objectReference: {fileID: 0}
    - target: {fileID: 342937347130865717, guid: 08df9875580c7e4418cfa6c1bbb191fd,
        type: 3}
      propertyPath: m_LocalEulerAnglesHint.x
      value: 0
      objectReference: {fileID: 0}
    - target: {fileID: 342937347130865717, guid: 08df9875580c7e4418cfa6c1bbb191fd,
        type: 3}
      propertyPath: m_LocalEulerAnglesHint.y
      value: 0
      objectReference: {fileID: 0}
    - target: {fileID: 342937347130865717, guid: 08df9875580c7e4418cfa6c1bbb191fd,
        type: 3}
      propertyPath: m_LocalEulerAnglesHint.z
      value: 0
      objectReference: {fileID: 0}
    m_RemovedComponents: []
  m_SourcePrefab: {fileID: 100100000, guid: 08df9875580c7e4418cfa6c1bbb191fd, type: 3}
--- !u!4 &7120028310989264123 stripped
Transform:
  m_CorrespondingSourceObject: {fileID: 342937347130865717, guid: 08df9875580c7e4418cfa6c1bbb191fd,
    type: 3}
  m_PrefabInstance: {fileID: 7353595018047548622}
  m_PrefabAsset: {fileID: 0}
